HARPNUM,diff_noaa_in_all
45,[11073]
700,[11253]
705,"[11248, 11253]"
714,[11256]
1124,[11373]
1578,[11464]
1662,[11487]
1724,[11502]
1907,[11545]
2790,"[11761, 11759]"
2878,[11780]
3115,[11826]
3212,[11845]
3252,[11866]
3263,[11861]
3520,"[11939, 11935]"
3686,[11975]
4252,[12094]
4296,[12108]
4616,[12181]
4862,[12224]
5342,[12309]
5387,[12312]
5596,[12352]
5738,[12383]
5750,[12378]
6063,[12447]
6155,[12467]
6178,[12474]
6361,[12503]
6523,[12540]
6688,[12572]
7123,[12675]
